<?xml version="1.0" encoding="utf-8"?>
<!-- Generator: Adobe Illustrator 15.1.0, SVG Export Plug-In . SVG Version: 6.00 Build 0)  -->
<!DOCTYPE svg PUBLIC "-//W3C//DTD SVG 1.1//EN" "http://www.w3.org/Graphics/SVG/1.1/DTD/svg11.dtd">
<svg version="1.1" id="Layer_1" xmlns="http://www.w3.org/2000/svg" xmlns:xlink="http://www.w3.org/1999/xlink" x="0px" y="0px"
	 width="146.734px" height="100px" viewBox="0 137.195 146.734 100" enable-background="new 0 137.195 146.734 100"
	 xml:space="preserve">
<g>
	<path fill="#FFFFFF" d="M73.161,210.174h4.77l9.159,21.184h0.077l9.235-21.184h4.656v27.021h-3.203v-22.67h-0.08l-9.692,22.67
		h-1.943l-9.696-22.67h-0.076v22.67h-3.205L73.161,210.174L73.161,210.174z M58.046,214.294h-0.076l-5.607,13.281H63.39
		L58.046,214.294z M56.596,210.174h3.016l11.486,27.021H67.36l-2.749-6.641h-13.51l-2.786,6.641H44.69L56.596,210.174z
		 M24.844,210.174h16.982v2.977h-13.78v8.476H40.91v2.976H28.046v9.619h14.467v2.975H24.844V210.174z M21.066,213.15h-8.933v24.045
		H8.926V213.15H0v-2.977h21.067L21.066,213.15L21.066,213.15z M146.732,190.223c0,1.568-0.239,3.018-0.712,4.338
		c-0.476,1.319-1.178,2.467-2.11,3.44c-0.935,0.972-2.103,1.731-3.497,2.28c-1.396,0.547-3.003,0.822-4.822,0.822
		c-1.844,0-3.466-0.275-4.86-0.822c-1.397-0.549-2.562-1.311-3.498-2.28c-0.934-0.974-1.639-2.121-2.107-3.44
		c-0.478-1.32-0.715-2.769-0.715-4.338V173.96h5.835v16.039c0,0.821,0.13,1.58,0.389,2.28c0.267,0.697,0.633,1.304,1.105,1.812
		c0.471,0.513,1.038,0.912,1.703,1.197c0.659,0.289,1.375,0.431,2.148,0.431c0.771,0,1.481-0.143,2.131-0.431
		c0.646-0.285,1.209-0.685,1.684-1.197c0.474-0.509,0.841-1.114,1.1-1.812c0.265-0.7,0.395-1.459,0.395-2.28V173.96h5.835v16.263
		H146.732z M110.279,181.658l-3.216,8.229h6.467L110.279,181.658z M108.038,173.96h4.821l11.516,26.472h-6.579l-2.283-5.608h-10.275
		l-2.21,5.608h-6.429L108.038,173.96z M75.995,173.96h17.986v5.383H81.826v4.935h11.48v5.385h-11.48v5.384h12.828v5.386H75.995
		V173.96L75.995,173.96z M57.378,184.915h3.44c0.521,0,1.077-0.021,1.664-0.058c0.583-0.037,1.116-0.15,1.588-0.336
		c0.474-0.187,0.869-0.479,1.179-0.879c0.312-0.399,0.468-0.957,0.468-1.686c0-0.671-0.138-1.207-0.412-1.607
		c-0.274-0.397-0.622-0.701-1.046-0.912c-0.427-0.215-0.911-0.354-1.458-0.432c-0.55-0.076-1.084-0.111-1.609-0.111h-3.813V184.915
		L57.378,184.915z M51.545,173.96h10.242c1.348,0,2.626,0.132,3.835,0.392c1.207,0.26,2.269,0.701,3.176,1.308
		c0.912,0.612,1.632,1.437,2.17,2.472c0.534,1.032,0.804,2.323,0.804,3.868c0,1.87-0.485,3.457-1.459,4.769
		c-0.972,1.307-2.394,2.135-4.262,2.485l6.729,11.179h-6.99l-5.535-10.58h-2.879v10.58h-5.831L51.545,173.96L51.545,173.96z
		 M47.732,190.223c0,1.568-0.235,3.018-0.711,4.338c-0.473,1.319-1.18,2.467-2.109,3.44c-0.937,0.972-2.1,1.731-3.499,2.28
		c-1.395,0.547-3.002,0.822-4.822,0.822c-1.844,0-3.465-0.275-4.859-0.822c-1.399-0.549-2.563-1.311-3.495-2.28
		c-0.938-0.974-1.645-2.121-2.111-3.44c-0.478-1.32-0.713-2.769-0.713-4.338V173.96h5.83v16.039c0,0.821,0.133,1.58,0.398,2.28
		c0.258,0.697,0.626,1.304,1.1,1.812c0.47,0.513,1.042,0.912,1.699,1.197c0.663,0.289,1.38,0.431,2.152,0.431
		c0.771,0,1.48-0.143,2.131-0.431c0.648-0.285,1.207-0.685,1.683-1.197c0.473-0.509,0.841-1.114,1.103-1.812
		c0.262-0.7,0.395-1.459,0.395-2.28V173.96h5.83V190.223L47.732,190.223z M8.101,195.496h5.234c0.448,0,0.906-0.053,1.367-0.15
		c0.46-0.102,0.877-0.277,1.251-0.523c0.372-0.248,0.679-0.576,0.914-0.975c0.238-0.396,0.356-0.883,0.356-1.455
		c0-0.625-0.155-1.129-0.468-1.518c-0.313-0.384-0.705-0.677-1.179-0.876c-0.474-0.201-0.985-0.337-1.533-0.414
		c-0.549-0.071-1.059-0.108-1.531-0.108H8.101V195.496z M8.101,184.54h4.227c0.448,0,0.887-0.052,1.326-0.149
		c0.436-0.1,0.831-0.263,1.176-0.486c0.351-0.225,0.633-0.521,0.843-0.897c0.21-0.374,0.319-0.821,0.319-1.347
		c0-0.547-0.121-1-0.354-1.362c-0.238-0.36-0.542-0.641-0.917-0.842c-0.375-0.199-0.797-0.341-1.271-0.429s-0.936-0.129-1.384-0.129
		H8.101V184.54z M2.27,173.96h9.872c1.145,0,2.297,0.081,3.457,0.242c1.159,0.162,2.198,0.485,3.122,0.971
		c0.922,0.485,1.669,1.168,2.241,2.038c0.572,0.875,0.86,2.033,0.86,3.479c0,1.496-0.417,2.735-1.251,3.72
		c-0.837,0.985-1.938,1.69-3.309,2.114v0.072c0.871,0.127,1.663,0.369,2.374,0.728c0.71,0.364,1.321,0.823,1.83,1.387
		c0.513,0.562,0.902,1.216,1.18,1.962c0.272,0.748,0.413,1.545,0.413,2.393c0,1.396-0.3,2.562-0.895,3.496
		c-0.604,0.934-1.376,1.69-2.323,2.262c-0.945,0.576-2.011,0.986-3.193,1.236c-1.186,0.246-2.364,0.373-3.536,0.373H2.27V173.96z
		 M94.801,142.35h-7.552v-5.154h20.938v5.154h-7.553v21.314H94.8L94.801,142.35L94.801,142.35z M59.209,137.195h7.927l11.25,18.394
		h0.075v-18.394h5.834v26.47h-7.627L65.114,144.82H65.04v18.845h-5.83L59.209,137.195L59.209,137.195z M48.668,137.195h5.834v26.47
		h-5.834V137.195L48.668,137.195z M30.347,148.148h3.438c0.523,0,1.077-0.019,1.665-0.057c0.586-0.039,1.114-0.148,1.592-0.339
		c0.471-0.187,0.863-0.479,1.175-0.879c0.313-0.397,0.468-0.957,0.468-1.679c0-0.676-0.138-1.207-0.409-1.609
		c-0.277-0.398-0.624-0.703-1.046-0.915c-0.424-0.212-0.91-0.354-1.459-0.43c-0.551-0.076-1.088-0.112-1.607-0.112H30.35
		L30.347,148.148L30.347,148.148z M24.514,137.195h10.243c1.347,0,2.621,0.129,3.834,0.389c1.205,0.264,2.268,0.701,3.177,1.311
		c0.909,0.611,1.632,1.436,2.168,2.471c0.538,1.033,0.803,2.322,0.803,3.869c0,1.867-0.485,3.457-1.459,4.767
		c-0.97,1.31-2.392,2.136-4.26,2.488l6.728,11.177H38.76l-5.534-10.579h-2.877v10.579h-5.834V137.195z M8.101,148.407h3.889
		c0.525,0,1.027-0.05,1.517-0.148c0.485-0.102,0.921-0.268,1.305-0.507c0.39-0.234,0.698-0.559,0.938-0.97
		c0.232-0.41,0.354-0.929,0.354-1.552c0-0.674-0.156-1.217-0.468-1.627c-0.312-0.412-0.711-0.729-1.197-0.957
		c-0.485-0.224-1.027-0.363-1.624-0.429c-0.603-0.062-1.176-0.093-1.725-0.093H8.101V148.407z M2.27,137.195h9.835
		c1.369,0,2.663,0.121,3.886,0.371s2.287,0.681,3.193,1.289c0.914,0.611,1.636,1.434,2.172,2.47
		c0.534,1.032,0.808,2.335,0.808,3.907c0,1.543-0.254,2.84-0.751,3.887c-0.5,1.048-1.186,1.882-2.059,2.505
		c-0.872,0.625-1.907,1.065-3.102,1.327c-1.198,0.263-2.495,0.393-3.892,0.393h-4.26v10.32H2.27V137.195z"/>
</g>
</svg>
